%YAML 1.1
%TAG !u! tag:unity3d.com,2011:
--- !u!29 &1
OcclusionCullingSettings:
  m_ObjectHideFlags: 0
  serializedVersion: 2
  m_OcclusionBakeSettings:
    smallestOccluder: 5
    smallestHole: 0.25
    backfaceThreshold: 100
  m_SceneGUID: 00000000000000000000000000000000
  m_OcclusionCullingData: {fileID: 0}
--- !u!104 &2
RenderSettings:
  m_ObjectHideFlags: 0
  serializedVersion: 9
  m_Fog: 0
  m_FogColor: {r: 0.5, g: 0.5, b: 0.5, a: 1}
  m_FogMode: 3
  m_FogDensity: 0.01
  m_LinearFogStart: 0
  m_LinearFogEnd: 300
  m_AmbientSkyColor: {r: 0.212, g: 0.227, b: 0.259, a: 1}
  m_AmbientEquatorColor: {r: 0.114, g: 0.125, b: 0.133, a: 1}
  m_AmbientGroundColor: {r: 0.047, g: 0.043, b: 0.035, a: 1}
  m_AmbientIntensity: 1
  m_AmbientMode: 3
  m_SubtractiveShadowColor: {r: 0.42, g: 0.478, b: 0.627, a: 1}
  m_SkyboxMaterial: {fileID: 0}
  m_HaloStrength: 0.5
  m_FlareStrength: 1
  m_FlareFadeSpeed: 3
  m_HaloTexture: {fileID: 0}
  m_SpotCookie: {fileID: 10001, guid: 0000000000000000e000000000000000, type: 0}
  m_DefaultReflectionMode: 0
  m_DefaultReflectionResolution: 128
  m_ReflectionBounces: 1
  m_ReflectionIntensity: 1
  m_CustomReflection: {fileID: 0}
  m_Sun: {fileID: 0}
  m_IndirectSpecularColor: {r: 0, g: 0, b: 0, a: 1}
  m_UseRadianceAmbientProbe: 0
--- !u!157 &3
LightmapSettings:
  m_ObjectHideFlags: 0
  serializedVersion: 11
  m_GIWorkflowMode: 1
  m_GISettings:
    serializedVersion: 2
    m_BounceScale: 1
    m_IndirectOutputScale: 1
    m_AlbedoBoost: 1
    m_EnvironmentLightingMode: 0
    m_EnableBakedLightmaps: 0
    m_EnableRealtimeLightmaps: 0
  m_LightmapEditorSettings:
    serializedVersion: 12
    m_Resolution: 2
    m_BakeResolution: 40
    m_AtlasSize: 1024
    m_AO: 0
    m_AOMaxDistance: 1
    m_CompAOExponent: 1
    m_CompAOExponentDirect: 0
    m_ExtractAmbientOcclusion: 0
    m_Padding: 2
    m_LightmapParameters: {fileID: 0}
    m_LightmapsBakeMode: 1
    m_TextureCompression: 1
    m_FinalGather: 0
    m_FinalGatherFiltering: 1
    m_FinalGatherRayCount: 256
    m_ReflectionCompression: 2
    m_MixedBakeMode: 2
    m_BakeBackend: 0
    m_PVRSampling: 1
    m_PVRDirectSampleCount: 32
    m_PVRSampleCount: 500
    m_PVRBounces: 2
    m_PVREnvironmentSampleCount: 500
    m_PVREnvironmentReferencePointCount: 2048
    m_PVRFilteringMode: 2
    m_PVRDenoiserTypeDirect: 0
    m_PVRDenoiserTypeIndirect: 0
    m_PVRDenoiserTypeAO: 0
    m_PVRFilterTypeDirect: 0
    m_PVRFilterTypeIndirect: 0
    m_PVRFilterTypeAO: 0
    m_PVREnvironmentMIS: 0
    m_PVRCulling: 1
    m_PVRFilteringGaussRadiusDirect: 1
    m_PVRFilteringGaussRadiusIndirect: 5
    m_PVRFilteringGaussRadiusAO: 2
    m_PVRFilteringAtrousPositionSigmaDirect: 0.5
    m_PVRFilteringAtrousPositionSigmaIndirect: 2
    m_PVRFilteringAtrousPositionSigmaAO: 1
    m_ExportTrainingData: 0
    m_TrainingDataDestination: TrainingData
    m_LightProbeSampleCountMultiplier: 4
  m_LightingDataAsset: {fileID: 0}
  m_UseShadowmask: 1
--- !u!196 &4
NavMeshSettings:
  serializedVersion: 2
  m_ObjectHideFlags: 0
  m_BuildSettings:
    serializedVersion: 2
    agentTypeID: 0
    agentRadius: 0.5
    agentHeight: 2
    agentSlope: 45
    agentClimb: 0.4
    ledgeDropHeight: 0
    maxJumpAcrossDistance: 0
    minRegionArea: 2
    manualCellSize: 0
    cellSize: 0.16666667
    manualTileSize: 0
    tileSize: 256
    accuratePlacement: 0
    debug:
      m_Flags: 0
  m_NavMeshData: {fileID: 0}
--- !u!1 &224110557
GameObject:
  m_ObjectHideFlags: 0
  m_CorrespondingSourceObject: {fileID: 0}
  m_PrefabInstance: {fileID: 0}
  m_PrefabAsset: {fileID: 0}
  serializedVersion: 6
  m_Component:
  - component: {fileID: 224110558}
  - component: {fileID: 224110560}
  - component: {fileID: 224110559}
  m_Layer: 5
  m_Name: Text
  m_TagString: Untagged
  m_Icon: {fileID: 0}
  m_NavMeshLayer: 0
  m_StaticEditorFlags: 0
  m_IsActive: 1
--- !u!224 &224110558
RectTransform:
  m_ObjectHideFlags: 0
  m_CorrespondingSourceObject: {fileID: 0}
  m_PrefabInstance: {fileID: 0}
  m_PrefabAsset: {fileID: 0}
  m_GameObject: {fileID: 224110557}
  m_LocalRotation: {x: 0, y: 0, z: 0, w: 1}
  m_LocalPosition: {x: 0, y: 0, z: 0}
  m_LocalScale: {x: 1, y: 1, z: 1}
  m_Children: []
  m_Father: {fileID: 2026833675}
  m_RootOrder: 0
  m_LocalEulerAnglesHint: {x: 0, y: 0, z: 0}
  m_AnchorMin: {x: 0.5, y: 0.5}
  m_AnchorMax: {x: 0.5, y: 0.5}
  m_AnchoredPosition: {x: -35.5, y: 60}
  m_SizeDelta: {x: 520.27795, y: 102.993}
  m_Pivot: {x: 0.5, y: 0.5}
--- !u!114 &224110559
MonoBehaviour:
  m_ObjectHideFlags: 0
  m_CorrespondingSourceObject: {fileID: 0}
  m_PrefabInstance: {fileID: 0}
  m_PrefabAsset: {fileID: 0}
  m_GameObject: {fileID: 224110557}
  m_Enabled: 1
  m_EditorHideFlags: 0
  m_Script: {fileID: 11500000, guid: 5f7201a12d95ffc409449d95f23cf332, type: 3}
  m_Name: 
  m_EditorClassIdentifier: 
  m_Material: {fileID: 0}
  m_Color: {r: 0.85721946, g: 0.90588236, b: 0, a: 1}
  m_RaycastTarget: 1
  m_Maskable: 1
  m_OnCullStateChanged:
    m_PersistentCalls:
      m_Calls: []
  m_FontData:
    m_Font: {fileID: 12800000, guid: be94f3f50a3173b48b037d491d8a1046, type: 3}
    m_FontSize: 30
    m_FontStyle: 0
    m_BestFit: 0
    m_MinSize: 3
    m_MaxSize: 40
    m_Alignment: 0
    m_AlignByGeometry: 0
    m_RichText: 1
    m_HorizontalOverflow: 0
    m_VerticalOverflow: 0
    m_LineSpacing: 1
  m_Text: 'Score: 0'
--- !u!222 &224110560
CanvasRenderer:
  m_ObjectHideFlags: 0
  m_CorrespondingSourceObject: {fileID: 0}
  m_PrefabInstance: {fileID: 0}
  m_PrefabAsset: {fileID: 0}
  m_GameObject: {fileID: 224110557}
  m_CullTransparentMesh: 0
--- !u!1 &950603054
GameObject:
  m_ObjectHideFlags: 0
  m_CorrespondingSourceObject: {fileID: 0}
  m_PrefabInstance: {fileID: 0}
  m_PrefabAsset: {fileID: 0}
  serializedVersion: 6
  m_Component:
  - component: {fileID: 950603057}
  - component: {fileID: 950603056}
  - component: {fileID: 950603055}
  m_Layer: 0
  m_Name: EventSystem
  m_TagString: Untagged
  m_Icon: {fileID: 0}
  m_NavMeshLayer: 0
  m_StaticEditorFlags: 0
  m_IsActive: 1
--- !u!114 &950603055
MonoBehaviour:
  m_ObjectHideFlags: 0
  m_CorrespondingSourceObject: {fileID: 0}
  m_PrefabInstance: {fileID: 0}
  m_PrefabAsset: {fileID: 0}
  m_GameObject: {fileID: 950603054}
  m_Enabled: 1
  m_EditorHideFlags: 0
  m_Script: {fileID: 11500000, guid: 4f231c4fb786f3946a6b90b886c48677, type: 3}
  m_Name: 
  m_EditorClassIdentifier: 
  m_HorizontalAxis: Horizontal
  m_VerticalAxis: Vertical
  m_SubmitButton: Submit
  m_CancelButton: Cancel
  m_InputActionsPerSecond: 10
  m_RepeatDelay: 0.5
  m_ForceModuleActive: 0
--- !u!114 &950603056
MonoBehaviour:
  m_ObjectHideFlags: 0
  m_CorrespondingSourceObject: {fileID: 0}
  m_PrefabInstance: {fileID: 0}
  m_PrefabAsset: {fileID: 0}
  m_GameObject: {fileID: 950603054}
  m_Enabled: 1
  m_EditorHideFlags: 0
  m_Script: {fileID: 11500000, guid: 76c392e42b5098c458856cdf6ecaaaa1, type: 3}
  m_Name: 
  m_EditorClassIdentifier: 
  m_FirstSelected: {fileID: 0}
  m_sendNavigationEvents: 1
  m_DragThreshold: 10
--- !u!4 &950603057
Transform:
  m_ObjectHideFlags: 0
  m_CorrespondingSourceObject: {fileID: 0}
  m_PrefabInstance: {fileID: 0}
  m_PrefabAsset: {fileID: 0}
  m_GameObject: {fileID: 950603054}
  m_LocalRotation: {x: 0, y: 0, z: 0, w: 1}
  m_LocalPosition: {x: 0, y: 0, z: 0}
  m_LocalScale: {x: 1, y: 1, z: 1}
  m_Children: []
  m_Father: {fileID: 0}
  m_RootOrder: 2
  m_LocalEulerAnglesHint: {x: 0, y: 0, z: 0}
--- !u!1 &1224846405 stripped
GameObject:
  m_CorrespondingSourceObject: {fileID: 5438526657634544070, guid: a9775f7e40496c94f90562c92f95df2d,
    type: 3}
  m_PrefabInstance: {fileID: 5438526658349958405}
  m_PrefabAsset: {fileID: 0}
--- !u!60 &1224846406
PolygonCollider2D:
  m_ObjectHideFlags: 0
  m_CorrespondingSourceObject: {fileID: 0}
  m_PrefabInstance: {fileID: 0}
  m_PrefabAsset: {fileID: 0}
  m_GameObject: {fileID: 1224846405}
  m_Enabled: 1
  m_Density: 1
  m_Material: {fileID: 0}
  m_IsTrigger: 1
  m_UsedByEffector: 0
  m_UsedByComposite: 0
  m_Offset: {x: 0, y: 0}
  m_SpriteTilingProperty:
    border: {x: 0, y: 0, z: 0, w: 0}
    pivot: {x: 0, y: 0}
    oldSize: {x: 0, y: 0}
    newSize: {x: 0, y: 0}
    adaptiveTilingThreshold: 0
    drawMode: 0
    adaptiveTiling: 0
  m_AutoTiling: 0
  m_Points:
    m_Paths:
    - - {x: 0, y: 1}
      - {x: -0.95105654, y: 0.30901697}
      - {x: -0.5877852, y: -0.80901706}
      - {x: 0.58778536, y: -0.80901694}
      - {x: 0.9510565, y: 0.30901712}
--- !u!60 &1224846407
PolygonCollider2D:
  m_ObjectHideFlags: 0
  m_CorrespondingSourceObject: {fileID: 0}
  m_PrefabInstance: {fileID: 0}
  m_PrefabAsset: {fileID: 0}
  m_GameObject: {fileID: 1224846405}
  m_Enabled: 1
  m_Density: 1
  m_Material: {fileID: 0}
  m_IsTrigger: 0
  m_UsedByEffector: 0
  m_UsedByComposite: 1
  m_Offset: {x: 0, y: 0}
  m_SpriteTilingProperty:
    border: {x: 0, y: 0, z: 0, w: 0}
    pivot: {x: 0, y: 0}
    oldSize: {x: 0, y: 0}
    newSize: {x: 0, y: 0}
    adaptiveTilingThreshold: 0
    drawMode: 0
    adaptiveTiling: 0
  m_AutoTiling: 0
  m_Points:
    m_Paths:
    - - {x: 0, y: 1}
      - {x: -0.95105654, y: 0.30901697}
      - {x: -0.5877852, y: -0.80901706}
      - {x: 0.58778536, y: -0.80901694}
      - {x: 0.9510565, y: 0.30901712}
--- !u!1 &1298942341
GameObject:
  m_ObjectHideFlags: 0
  m_CorrespondingSourceObject: {fileID: 0}
  m_PrefabInstance: {fileID: 0}
  m_PrefabAsset: {fileID: 0}
  serializedVersion: 6
  m_Component:
  - component: {fileID: 1298942342}
  - component: {fileID: 1298942344}
  - component: {fileID: 1298942343}
  m_Layer: 0
  m_Name: ArdillaMonopatinSalto_0
  m_TagString: Untagged
  m_Icon: {fileID: 0}
  m_NavMeshLayer: 0
  m_StaticEditorFlags: 0
  m_IsActive: 1
--- !u!4 &1298942342
Transform:
  m_ObjectHideFlags: 0
  m_CorrespondingSourceObject: {fileID: 0}
  m_PrefabInstance: {fileID: 0}
  m_PrefabAsset: {fileID: 0}
  m_GameObject: {fileID: 1298942341}
  m_LocalRotation: {x: -0, y: -0, z: 0.0034875101, w: 0.999994}
  m_LocalPosition: {x: -0, y: 0.02, z: 0}
  m_LocalScale: {x: 1.420953, y: 1.0501724, z: 1}
  m_Children: []
  m_Father: {fileID: 1572711623}
  m_RootOrder: 1
  m_LocalEulerAnglesHint: {x: 0, y: 0, z: 0}
--- !u!95 &1298942343
Animator:
  serializedVersion: 3
  m_ObjectHideFlags: 0
  m_CorrespondingSourceObject: {fileID: 0}
  m_PrefabInstance: {fileID: 0}
  m_PrefabAsset: {fileID: 0}
  m_GameObject: {fileID: 1298942341}
  m_Enabled: 1
  m_Avatar: {fileID: 0}
  m_Controller: {fileID: 9100000, guid: 81ad1bfafe6a60447a84e9c0c3b1b7e5, type: 2}
  m_CullingMode: 0
  m_UpdateMode: 0
  m_ApplyRootMotion: 0
  m_LinearVelocityBlending: 0
  m_WarningMessage: 
  m_HasTransformHierarchy: 1
  m_AllowConstantClipSamplingOptimization: 1
  m_KeepAnimatorControllerStateOnDisable: 0
--- !u!212 &1298942344
SpriteRenderer:
  m_ObjectHideFlags: 0
  m_CorrespondingSourceObject: {fileID: 0}
  m_PrefabInstance: {fileID: 0}
  m_PrefabAsset: {fileID: 0}
  m_GameObject: {fileID: 1298942341}
  m_Enabled: 1
  m_CastShadows: 0
  m_ReceiveShadows: 0
  m_DynamicOccludee: 1
  m_MotionVectors: 1
  m_LightProbeUsage: 1
  m_ReflectionProbeUsage: 1
  m_RayTracingMode: 0
  m_RenderingLayerMask: 1
  m_RendererPriority: 0
  m_Materials:
  - {fileID: 10754, guid: 0000000000000000f000000000000000, type: 0}
  m_StaticBatchInfo:
    firstSubMesh: 0
    subMeshCount: 0
  m_StaticBatchRoot: {fileID: 0}
  m_ProbeAnchor: {fileID: 0}
  m_LightProbeVolumeOverride: {fileID: 0}
  m_ScaleInLightmap: 1
  m_ReceiveGI: 1
  m_PreserveUVs: 0
  m_IgnoreNormalsForChartDetection: 0
  m_ImportantGI: 0
  m_StitchLightmapSeams: 1
  m_SelectedEditorRenderState: 0
  m_MinimumChartSize: 4
  m_AutoUVMaxDistance: 0.5
  m_AutoUVMaxAngle: 89
  m_LightmapParameters: {fileID: 0}
  m_SortingLayerID: 0
  m_SortingLayer: 0
  m_SortingOrder: 0
  m_Sprite: {fileID: 8466537099340137220, guid: a2a7ef61611fcb1468db2d283d9b3ee1,
    type: 3}
  m_Color: {r: 1, g: 1, b: 1, a: 1}
  m_FlipX: 0
  m_FlipY: 0
  m_DrawMode: 0
  m_Size: {x: 1.37, y: 1.99}
  m_AdaptiveModeThreshold: 0.5
  m_SpriteTileMode: 0
  m_WasSpriteAssigned: 1
  m_MaskInteraction: 0
  m_SpriteSortPoint: 0
--- !u!4 &1572711623 stripped
Transform:
  m_CorrespondingSourceObject: {fileID: 5438526657634544066, guid: a9775f7e40496c94f90562c92f95df2d,
    type: 3}
  m_PrefabInstance: {fileID: 5438526658349958405}
  m_PrefabAsset: {fileID: 0}
--- !u!1 &1739062963 stripped
GameObject:
  m_CorrespondingSourceObject: {fileID: 5438526658720349561, guid: a9775f7e40496c94f90562c92f95df2d,
    type: 3}
  m_PrefabInstance: {fileID: 5438526658349958405}
  m_PrefabAsset: {fileID: 0}
--- !u!82 &1739062965
AudioSource:
  m_ObjectHideFlags: 0
  m_CorrespondingSourceObject: {fileID: 0}
  m_PrefabInstance: {fileID: 0}
  m_PrefabAsset: {fileID: 0}
  m_GameObject: {fileID: 1739062963}
  m_Enabled: 1
  serializedVersion: 4
  OutputAudioMixerGroup: {fileID: 0}
  m_audioClip: {fileID: 8300000, guid: 5d90707c697604c4098da7d6fb18282b, type: 3}
  m_PlayOnAwake: 1
  m_Volume: 1
  m_Pitch: 1
  Loop: 1
  Mute: 0
  Spatialize: 0
  SpatializePostEffects: 0
  Priority: 128
  DopplerLevel: 1
  MinDistance: 1
  MaxDistance: 500
  Pan2D: 0
  rolloffMode: 0
  BypassEffects: 0
  BypassListenerEffects: 0
  BypassReverbZones: 0
  rolloffCustomCurve:
    serializedVersion: 2
    m_Curve:
    - serializedVersion: 3
      time: 0
      value: 1
      inSlope: 0
      outSlope: 0
      tangentMode: 0
      weightedMode: 0
      inWeight: 0.33333334
      outWeight: 0.33333334
    - serializedVersion: 3
      time: 1
      value: 0
      inSlope: 0
      outSlope: 0
      tangentMode: 0
      weightedMode: 0
      inWeight: 0.33333334
      outWeight: 0.33333334
    m_PreInfinity: 2
    m_PostInfinity: 2
    m_RotationOrder: 4
  panLevelCustomCurve:
    serializedVersion: 2
    m_Curve:
    - serializedVersion: 3
      time: 0
      value: 0
      inSlope: 0
      outSlope: 0
      tangentMode: 0
      weightedMode: 0
      inWeight: 0.33333334
      outWeight: 0.33333334
    m_PreInfinity: 2
    m_PostInfinity: 2
    m_RotationOrder: 4
  spreadCustomCurve:
    serializedVersion: 2
    m_Curve:
    - serializedVersion: 3
      time: 0
      value: 0
      inSlope: 0
      outSlope: 0
      tangentMode: 0
      weightedMode: 0
      inWeight: 0.33333334
      outWeight: 0.33333334
    m_PreInfinity: 2
    m_PostInfinity: 2
    m_RotationOrder: 4
  reverbZoneMixCustomCurve:
    serializedVersion: 2
    m_Curve:
    - serializedVersion: 3
      time: 0
      value: 1
      inSlope: 0
      outSlope: 0
      tangentMode: 0
      weightedMode: 0
      inWeight: 0.33333334
      outWeight: 0.33333334
    m_PreInfinity: 2
    m_PostInfinity: 2
    m_RotationOrder: 4
--- !u!1 &1828418308
GameObject:
  m_ObjectHideFlags: 0
  m_CorrespondingSourceObject: {fileID: 0}
  m_PrefabInstance: {fileID: 0}
  m_PrefabAsset: {fileID: 0}
  serializedVersion: 6
  m_Component:
  - component: {fileID: 1828418309}
  - component: {fileID: 1828418310}
  m_Layer: 0
  m_Name: pistola
  m_TagString: Untagged
  m_Icon: {fileID: 0}
  m_NavMeshLayer: 0
  m_StaticEditorFlags: 0
  m_IsActive: 1
--- !u!4 &1828418309
Transform:
  m_ObjectHideFlags: 0
  m_CorrespondingSourceObject: {fileID: 0}
  m_PrefabInstance: {fileID: 0}
  m_PrefabAsset: {fileID: 0}
  m_GameObject: {fileID: 1828418308}
  m_LocalRotation: {x: 0, y: 0, z: 0, w: 1}
  m_LocalPosition: {x: 0, y: 0, z: 0}
  m_LocalScale: {x: 1, y: 1, z: 1}
  m_Children: []
  m_Father: {fileID: 1572711623}
  m_RootOrder: 0
  m_LocalEulerAnglesHint: {x: 0, y: 0, z: 0}
--- !u!114 &1828418310
MonoBehaviour:
  m_ObjectHideFlags: 0
  m_CorrespondingSourceObject: {fileID: 0}
  m_PrefabInstance: {fileID: 0}
  m_PrefabAsset: {fileID: 0}
  m_GameObject: {fileID: 1828418308}
  m_Enabled: 1
  m_EditorHideFlags: 0
  m_Script: {fileID: 11500000, guid: e6fd7be3e6673c644934449e5b1cb71f, type: 3}
  m_Name: 
  m_EditorClassIdentifier: 
  Bala: {fileID: 4945794302248484612, guid: 1b73c9ac9fbf7dd42a0c5fd687c4484c, type: 3}
  balarango: 0.5
--- !u!1 &2026833671
GameObject:
  m_ObjectHideFlags: 0
  m_CorrespondingSourceObject: {fileID: 0}
  m_PrefabInstance: {fileID: 0}
  m_PrefabAsset: {fileID: 0}
  serializedVersion: 6
  m_Component:
  - component: {fileID: 2026833675}
  - component: {fileID: 2026833674}
  - component: {fileID: 2026833673}
  - component: {fileID: 2026833672}
  m_Layer: 5
  m_Name: Canvas
  m_TagString: Untagged
  m_Icon: {fileID: 0}
  m_NavMeshLayer: 0
  m_StaticEditorFlags: 0
  m_IsActive: 1
--- !u!114 &2026833672
MonoBehaviour:
  m_ObjectHideFlags: 0
  m_CorrespondingSourceObject: {fileID: 0}
  m_PrefabInstance: {fileID: 0}
  m_PrefabAsset: {fileID: 0}
  m_GameObject: {fileID: 2026833671}
  m_Enabled: 1
  m_EditorHideFlags: 0
  m_Script: {fileID: 11500000, guid: dc42784cf147c0c48a680349fa168899, type: 3}
  m_Name: 
  m_EditorClassIdentifier: 
  m_IgnoreReversedGraphics: 1
  m_BlockingObjects: 0
  m_BlockingMask:
    serializedVersion: 2
    m_Bits: 4294967295
--- !u!114 &2026833673
MonoBehaviour:
  m_ObjectHideFlags: 0
  m_CorrespondingSourceObject: {fileID: 0}
  m_PrefabInstance: {fileID: 0}
  m_PrefabAsset: {fileID: 0}
  m_GameObject: {fileID: 2026833671}
  m_Enabled: 1
  m_EditorHideFlags: 0
  m_Script: {fileID: 11500000, guid: 0cd44c1031e13a943bb63640046fad76, type: 3}
  m_Name: 
  m_EditorClassIdentifier: 
  m_UiScaleMode: 2
  m_ReferencePixelsPerUnit: 100
  m_ScaleFactor: 1
  m_ReferenceResolution: {x: 800, y: 600}
  m_ScreenMatchMode: 0
  m_MatchWidthOrHeight: 0
  m_PhysicalUnit: 3
  m_FallbackScreenDPI: 96
  m_DefaultSpriteDPI: 96
  m_DynamicPixelsPerUnit: 1
--- !u!223 &2026833674
Canvas:
  m_ObjectHideFlags: 0
  m_CorrespondingSourceObject: {fileID: 0}
  m_PrefabInstance: {fileID: 0}
  m_PrefabAsset: {fileID: 0}
  m_GameObject: {fileID: 2026833671}
  m_Enabled: 1
  serializedVersion: 3
  m_RenderMode: 0
  m_Camera: {fileID: 0}
  m_PlaneDistance: 100
  m_PixelPerfect: 0
  m_ReceivesEvents: 1
  m_OverrideSorting: 0
  m_OverridePixelPerfect: 0
  m_SortingBucketNormalizedSize: 0
  m_AdditionalShaderChannelsFlag: 0
  m_SortingLayerID: 0
  m_SortingOrder: 0
  m_TargetDisplay: 0
--- !u!224 &2026833675
RectTransform:
  m_ObjectHideFlags: 0
  m_CorrespondingSourceObject: {fileID: 0}
  m_PrefabInstance: {fileID: 0}
  m_PrefabAsset: {fileID: 0}
  m_GameObject: {fileID: 2026833671}
  m_LocalRotation: {x: 0, y: 0, z: 0, w: 1}
  m_LocalPosition: {x: 0, y: 0, z: 0}
  m_LocalScale: {x: 0, y: 0, z: 0}
  m_Children:
  - {fileID: 224110558}
  m_Father: {fileID: 0}
  m_RootOrder: 1
  m_LocalEulerAnglesHint: {x: 0, y: 0, z: 0}
  m_AnchorMin: {x: 0, y: 0}
  m_AnchorMax: {x: 0, y: 0}
  m_AnchoredPosition: {x: 0, y: 0}
  m_SizeDelta: {x: 0, y: 0}
  m_Pivot: {x: 0, y: 0}
--- !u!1001 &5438526658349958405
PrefabInstance:
  m_ObjectHideFlags: 0
  serializedVersion: 2
  m_Modification:
    m_TransformParent: {fileID: 0}
    m_Modifications:
    - target: {fileID: 5438526657232353393, guid: a9775f7e40496c94f90562c92f95df2d,
        type: 3}
      propertyPath: m_RootOrder
      value: 0
      objectReference: {fileID: 0}
    - target: {fileID: 5438526657232353393, guid: a9775f7e40496c94f90562c92f95df2d,
        type: 3}
      propertyPath: m_LocalPosition.x
      value: 0
      objectReference: {fileID: 0}
    - target: {fileID: 5438526657232353393, guid: a9775f7e40496c94f90562c92f95df2d,
        type: 3}
      propertyPath: m_LocalPosition.y
      value: -9.57
      objectReference: {fileID: 0}
    - target: {fileID: 5438526657232353393, guid: a9775f7e40496c94f90562c92f95df2d,
        type: 3}
      propertyPath: m_LocalPosition.z
      value: -12.516858
      objectReference: {fileID: 0}
    - target: {fileID: 5438526657232353393, guid: a9775f7e40496c94f90562c92f95df2d,
        type: 3}
      propertyPath: m_LocalRotation.w
      value: 1
      objectReference: {fileID: 0}
    - target: {fileID: 5438526657232353393, guid: a9775f7e40496c94f90562c92f95df2d,
        type: 3}
      propertyPath: m_LocalRotation.x
      value: 0
      objectReference: {fileID: 0}
    - target: {fileID: 5438526657232353393, guid: a9775f7e40496c94f90562c92f95df2d,
        type: 3}
      propertyPath: m_LocalRotation.y
      value: 0
      objectReference: {fileID: 0}
    - target: {fileID: 5438526657232353393, guid: a9775f7e40496c94f90562c92f95df2d,
        type: 3}
      propertyPath: m_LocalRotation.z
      value: 0
      objectReference: {fileID: 0}
    - target: {fileID: 5438526657232353393, guid: a9775f7e40496c94f90562c92f95df2d,
        type: 3}
      propertyPath: m_LocalEulerAnglesHint.x
      value: 0
      objectReference: {fileID: 0}
    - target: {fileID: 5438526657232353393, guid: a9775f7e40496c94f90562c92f95df2d,
        type: 3}
      propertyPath: m_LocalEulerAnglesHint.y
      value: 0
      objectReference: {fileID: 0}
    - target: {fileID: 5438526657232353393, guid: a9775f7e40496c94f90562c92f95df2d,
        type: 3}
      propertyPath: m_LocalEulerAnglesHint.z
      value: 0
      objectReference: {fileID: 0}
    - target: {fileID: 5438526657232353398, guid: a9775f7e40496c94f90562c92f95df2d,
        type: 3}
      propertyPath: textoDeJuego
      value: 
      objectReference: {fileID: 224110559}
    - target: {fileID: 5438526657232353398, guid: a9775f7e40496c94f90562c92f95df2d,
        type: 3}
      propertyPath: BloqueFrab.Array.size
      value: 18
      objectReference: {fileID: 0}
    - target: {fileID: 5438526657232353398, guid: a9775f7e40496c94f90562c92f95df2d,
        type: 3}
      propertyPath: BloqueFrab.Array.data[0]
      value: 
      objectReference: {fileID: 508250469282118118, guid: 87f7d9f5cd3452249815083862755e60,
        type: 3}
    - target: {fileID: 5438526657232353398, guid: a9775f7e40496c94f90562c92f95df2d,
        type: 3}
      propertyPath: BloqueFrab.Array.data[1]
      value: 
      objectReference: {fileID: 508250469282118118, guid: 799ad6cd3fdaf514ea1cbeb54ca54fae,
        type: 3}
    - target: {fileID: 5438526657232353398, guid: a9775f7e40496c94f90562c92f95df2d,
        type: 3}
      propertyPath: BloqueFrab.Array.data[2]
      value: 
      objectReference: {fileID: 508250469282118118, guid: 6e9e531cbb67020459dd10da1a805baa,
        type: 3}
    - target: {fileID: 5438526657232353398, guid: a9775f7e40496c94f90562c92f95df2d,
        type: 3}
      propertyPath: BloqueFrab.Array.data[3]
      value: 
      objectReference: {fileID: 508250469282118118, guid: e5a0722a5f3c15d49bb26bdcde3d266a,
        type: 3}
    - target: {fileID: 5438526657232353398, guid: a9775f7e40496c94f90562c92f95df2d,
        type: 3}
      propertyPath: BloqueFrab.Array.data[4]
      value: 
      objectReference: {fileID: 508250469282118118, guid: 94611e43fe793a74e879c6ca3905b2b7,
        type: 3}
    - target: {fileID: 5438526657232353398, guid: a9775f7e40496c94f90562c92f95df2d,
        type: 3}
      propertyPath: BloqueFrab.Array.data[5]
      value: 
      objectReference: {fileID: 508250469282118118, guid: 53b5d2a6d03af774e9058458106e7cc8,
        type: 3}
    - target: {fileID: 5438526657232353398, guid: a9775f7e40496c94f90562c92f95df2d,
        type: 3}
      propertyPath: BloqueFrab.Array.data[6]
      value: 
      objectReference: {fileID: 508250469282118118, guid: 3ba7c3dd5e4c3d146b703af269488a76,
        type: 3}
    - target: {fileID: 5438526657232353398, guid: a9775f7e40496c94f90562c92f95df2d,
        type: 3}
      propertyPath: BloqueFrab.Array.data[7]
      value: 
      objectReference: {fileID: 508250469282118118, guid: d8c337006ade3264589e709b45dead0b,
        type: 3}
    - target: {fileID: 5438526657232353398, guid: a9775f7e40496c94f90562c92f95df2d,
        type: 3}
      propertyPath: BloqueFrab.Array.data[8]
      value: 
      objectReference: {fileID: 508250469282118118, guid: a32c3d6fb2fa87d4b9addd74c7db81c0,
        type: 3}
    - target: {fileID: 5438526657232353398, guid: a9775f7e40496c94f90562c92f95df2d,
        type: 3}
      propertyPath: BloqueFrab.Array.data[9]
      value: 
      objectReference: {fileID: 508250469282118118, guid: 816fbfe31f9796648950762852f98078,
        type: 3}
    - target: {fileID: 5438526657232353398, guid: a9775f7e40496c94f90562c92f95df2d,
        type: 3}
      propertyPath: BloqueFrab.Array.data[10]
      value: 
      objectReference: {fileID: 508250469282118118, guid: 8c26c885dcdfe6a4b8c4a500f169208d,
        type: 3}
    - target: {fileID: 5438526657232353398, guid: a9775f7e40496c94f90562c92f95df2d,
        type: 3}
      propertyPath: BloqueFrab.Array.data[11]
      value: 
      objectReference: {fileID: 508250469282118118, guid: 5588cb5baf8e4a34cb78861d8e687f4a,
        type: 3}
    - target: {fileID: 5438526657232353398, guid: a9775f7e40496c94f90562c92f95df2d,
        type: 3}
      propertyPath: BloqueFrab.Array.data[12]
      value: 
      objectReference: {fileID: 508250469282118118, guid: db628f47d055a0c46922bb614c044669,
        type: 3}
    - target: {fileID: 5438526657232353398, guid: a9775f7e40496c94f90562c92f95df2d,
        type: 3}
      propertyPath: BloqueFrab.Array.data[13]
      value: 
      objectReference: {fileID: 508250469282118118, guid: dd1d77c31e050b04f9d243e3403101ce,
        type: 3}
    - target: {fileID: 5438526657232353398, guid: a9775f7e40496c94f90562c92f95df2d,
        type: 3}
      propertyPath: BloqueFrab.Array.data[14]
      value: 
      objectReference: {fileID: 508250469282118118, guid: e09548854a651a74d908a16bb53e6074,
        type: 3}
    - target: {fileID: 5438526657232353398, guid: a9775f7e40496c94f90562c92f95df2d,
        type: 3}
      propertyPath: BloqueFrab.Array.data[15]
      value: 
      objectReference: {fileID: 508250469282118118, guid: a557c04319331a849828fbffa9494044,
        type: 3}
    - target: {fileID: 5438526657232353398, guid: a9775f7e40496c94f90562c92f95df2d,
        type: 3}
      propertyPath: BloqueFrab.Array.data[16]
      value: 
      objectReference: {fileID: 508250469282118118, guid: 14fae345126cb164d87d559d2ba6a14b,
        type: 3}
    - target: {fileID: 5438526657232353398, guid: a9775f7e40496c94f90562c92f95df2d,
        type: 3}
      propertyPath: BloqueFrab.Array.data[17]
      value: 
      objectReference: {fileID: 508250469282118118, guid: f109f038f47b5fc4db07889e103d8023,
        type: 3}
    - target: {fileID: 5438526657232353399, guid: a9775f7e40496c94f90562c92f95df2d,
        type: 3}
      propertyPath: m_Name
      value: GameObject
      objectReference: {fileID: 0}
    - target: {fileID: 5438526657634544064, guid: a9775f7e40496c94f90562c92f95df2d,
        type: 3}
      propertyPath: m_Enabled
      value: 0
      objectReference: {fileID: 0}
    - target: {fileID: 5438526657634544065, guid: a9775f7e40496c94f90562c92f95df2d,
        type: 3}
      propertyPath: m_Constraints
      value: 4
      objectReference: {fileID: 0}
    - target: {fileID: 5438526657634544066, guid: a9775f7e40496c94f90562c92f95df2d,
        type: 3}
      propertyPath: m_LocalPosition.x
      value: 8.98
      objectReference: {fileID: 0}
    - target: {fileID: 5438526657634544066, guid: a9775f7e40496c94f90562c92f95df2d,
        type: 3}
      propertyPath: m_LocalPosition.y
      value: 11.41
      objectReference: {fileID: 0}
    - target: {fileID: 5438526657634544066, guid: a9775f7e40496c94f90562c92f95df2d,
        type: 3}
      propertyPath: m_LocalRotation.w
      value: 0.999994
      objectReference: {fileID: 0}
    - target: {fileID: 5438526657634544066, guid: a9775f7e40496c94f90562c92f95df2d,
        type: 3}
      propertyPath: m_LocalRotation.z
      value: -0.0034875101
      objectReference: {fileID: 0}
    - target: {fileID: 5438526657634544066, guid: a9775f7e40496c94f90562c92f95df2d,
        type: 3}
      propertyPath: m_LocalEulerAnglesHint.z
      value: -0.4
      objectReference: {fileID: 0}
    - target: {fileID: 5438526657634544067, guid: a9775f7e40496c94f90562c92f95df2d,
        type: 3}
      propertyPath: m_Sprite
      value: 
      objectReference: {fileID: 0}
    - target: {fileID: 5438526657634544067, guid: a9775f7e40496c94f90562c92f95df2d,
        type: 3}
      propertyPath: m_Color.b
      value: 0.09488511
      objectReference: {fileID: 0}
    - target: {fileID: 5438526657634544067, guid: a9775f7e40496c94f90562c92f95df2d,
        type: 3}
      propertyPath: m_Color.g
      value: 1
      objectReference: {fileID: 0}
    - target: {fileID: 5438526657634544067, guid: a9775f7e40496c94f90562c92f95df2d,
        type: 3}
      propertyPath: m_Color.r
      value: 0
      objectReference: {fileID: 0}
    - target: {fileID: 5438526657634544067, guid: a9775f7e40496c94f90562c92f95df2d,
        type: 3}
      propertyPath: m_WasSpriteAssigned
      value: 0
      objectReference: {fileID: 0}
    - target: {fileID: 5438526657634544076, guid: a9775f7e40496c94f90562c92f95df2d,
        type: 3}
      propertyPath: Sound
      value: 
      objectReference: {fileID: 8300000, guid: 2e4f2a9811a45a6478eb17c8c1bfc1f3, type: 3}
    - target: {fileID: 5438526657634544076, guid: a9775f7e40496c94f90562c92f95df2d,
        type: 3}
      propertyPath: FuerzaDeSalto
      value: 400
      objectReference: {fileID: 0}
    - target: {fileID: 5438526657634544076, guid: a9775f7e40496c94f90562c92f95df2d,
        type: 3}
      propertyPath: VelocidadDeMov
      value: 7
      objectReference: {fileID: 0}
    - target: {fileID: 5438526657634544079, guid: a9775f7e40496c94f90562c92f95df2d,
        type: 3}
      propertyPath: m_Enabled
      value: 0
      objectReference: {fileID: 0}
    m_RemovedComponents:
    - {fileID: 5438526657634544064, guid: a9775f7e40496c94f90562c92f95df2d, type: 3}
    - {fileID: 5438526657634544079, guid: a9775f7e40496c94f90562c92f95df2d, type: 3}
  m_SourcePrefab: {fileID: 100100000, guid: a9775f7e40496c94f90562c92f95df2d, type: 3}
